Explore the problem (cont.) - ESIIL Innovation Summit 2024
…
  # Return the dataframe of unique city-state pairs
  return(city_state_df)
}

#Retrieve the list of cities and states
city_state_list <- get_city_state_list_from_redlining_data()
print(city_state_list)

# A tibble: 314 × 2
   city        state
   <chr>       <chr>
 1 Birmingham  AL   
 2 Mobile      AL   
 3 Montgomery  AL   
 4 Arkadelphia AR   
 5 Batesville  AR   
 6 Camden      AR   
 7 Conway      AR   
 8 El Dorado   AR   
 9 Fort Smith  AR   
10 Little Rock AR   
# ℹ 304 more rows
…
  # Return the filtered data
  return(city_redline)
}

# Load redlining data for Denver
denver_redlining <- load_city_redlining_data("Denver")
print(denver_redlining)

Simple feature collection with 316 features and 15 fields
Geometry type: MULTIPOLYGON
Dimension:     XY
Bounding box:  xmin: -105.0622 ymin: 39.62952 xmax: -104.8763 ymax: 39.79111
Geodetic CRS:  WGS 84
# A tibble: 316 × 16
   area_id city   state city_survey cat   grade label res   com   ind   fill   
 *   <int> <chr>  <chr> <lgl>       <chr> <chr> <chr> <lgl> <lgl> <lgl> <chr>  
 1    6525 Denver CO    TRUE        Best  A     A1    TRUE  FALSE FALSE #76a865
 2    6525 Denver CO    TRUE        Best  A     A1    TRUE  FALSE FALSE #76a865
 3    6525 Denver CO    TRUE        Best  A     A1    TRUE  FALSE FALSE #76a865
 4    6525 Denver CO    TRUE        Best  A     A1    TRUE  FALSE FALSE #76a865
 5    6529 Denver CO    TRUE        Best  A     A2    TRUE  FALSE FALSE #76a865
 6    6529 Denver CO    TRUE        Best  A     A2    TRUE  FALSE FALSE #76a865
 7    6529 Denver CO    TRUE        Best  A     A2    TRUE  FALSE FALSE #76a865
 8    6537 Denver CO    TRUE        Best  A     A3    TRUE  FALSE FALSE #76a865
 9    6537 Denver CO    TRUE        Best  A     A3    TRUE  FALSE FALSE #76a865
10    6537 Denver CO    TRUE        Best  A     A3    TRUE  FALSE FALSE #76a865
# ℹ 306 more rows
# ℹ 5 more variables: GEOID10 <chr>, GISJOIN <chr>, calc_area <dbl>,
#   pct_tract <dbl>, geometry <MULTIPOLYGON [°]>
…
